[{"line":1,"elements":[{"line":16,"name":"DDT testcase","description":"","id":"ddt-testcase","type":"scenario","keyword":"Scenario Outline","steps":[{"name":"url \"https:\/\/reqres.in\"","result":{"duration":2245600,"status":"passed"},"match":{"location":"karate","arguments":[]},"keyword":"Given","line":7,"doc_string":{"content_type":"","value":"16:52:28.847 skipping bootstrap configuration: could not find or read file: classpath:karate-config.js","line":7}},{"name":"path \"\/api\/users?page=1>\"","result":{"duration":1640000,"status":"passed"},"match":{"location":"karate","arguments":[]},"keyword":"And","line":8},{"name":"method GET","result":{"duration":1211165200,"status":"passed"},"match":{"location":"karate","arguments":[]},"keyword":"When","line":9,"doc_string":{"content_type":"","value":"16:52:29.220 request:\n1 > GET https:\/\/reqres.in\/api\/users%3Fpage=1%3E\n1 > Accept-Encoding: gzip,deflate\n1 > Connection: Keep-Alive\n1 > Host: reqres.in\n1 > User-Agent: Apache-HttpClient\/4.5.12 (Java\/1.8.0_251)\n\n16:52:30.048 response time in milliseconds: 825.05\n1 < 200\n1 < Access-Control-Allow-Origin: *\n1 < CF-Cache-Status: MISS\n1 < CF-RAY: 5fb4ab9b4ccec345-SIN\n1 < Cache-Control: max-age=14400\n1 < Connection: keep-alive\n1 < Content-Type: application\/json; charset=utf-8\n1 < Date: Wed, 02 Dec 2020 11:22:29 GMT\n1 < Etag: W\/\"2c1-N6Rqerxquq2kgQhL51EiSg4x0R8\"\n1 < Expect-CT: max-age=604800, report-uri=\"https:\/\/report-uri.cloudflare.com\/cdn-cgi\/beacon\/expect-ct\"\n1 < NEL: {\"report_to\":\"cf-nel\",\"max_age\":604800}\n1 < Report-To: {\"endpoints\":[{\"url\":\"https:\\\/\\\/a.nel.cloudflare.com\\\/report?s=eXiy82U6HA1A3HIEMBA9q8UuuPZXanGqBm9NAQUsT8o47c0REFOJFxtcaiw1TGHrZBdcRQDNIBKUy5lYZ0jBhWwFqMpPCOKHSHM%3D\"}],\"group\":\"cf-nel\",\"max_age\":604800}\n1 < Server: cloudflare\n1 < Set-Cookie: __cfduid=d5b935ea4772623b0f73f3782522a831f1606908149; expires=Fri, 01-Jan-21 11:22:29 GMT; path=\/; domain=.reqres.in; HttpOnly; SameSite=Lax; Secure\n1 < Transfer-Encoding: chunked\n1 < Vary: Accept-Encoding\n1 < Via: 1.1 vegur\n1 < X-Powered-By: Express\n1 < cf-request-id: 06c4c9950d0000c345d4bba000000001\n{\"page\":1,\"per_page\":6,\"total\":12,\"total_pages\":2,\"data\":[{\"id\":1,\"name\":\"cerulean\",\"year\":2000,\"color\":\"#98B2D1\",\"pantone_value\":\"15-4020\"},{\"id\":2,\"name\":\"fuchsia rose\",\"year\":2001,\"color\":\"#C74375\",\"pantone_value\":\"17-2031\"},{\"id\":3,\"name\":\"true red\",\"year\":2002,\"color\":\"#BF1932\",\"pantone_value\":\"19-1664\"},{\"id\":4,\"name\":\"aqua sky\",\"year\":2003,\"color\":\"#7BC4C4\",\"pantone_value\":\"14-4811\"},{\"id\":5,\"name\":\"tigerlily\",\"year\":2004,\"color\":\"#E2583E\",\"pantone_value\":\"17-1456\"},{\"id\":6,\"name\":\"blue turquoise\",\"year\":2005,\"color\":\"#53B0AE\",\"pantone_value\":\"15-5217\"}],\"support\":{\"url\":\"https:\/\/reqres.in\/#support-heading\",\"text\":\"To keep ReqRes free, contributions towards server costs are appreciated!\"}}","line":9}},{"name":"status 200","result":{"duration":25300,"status":"passed"},"match":{"location":"karate","arguments":[]},"keyword":"Then","line":10},{"name":"match response.page == 1","result":{"duration":11531200,"status":"passed"},"match":{"location":"karate","arguments":[]},"keyword":"*","line":11}],"tags":[{"name":"@ddt","line":5}]},{"line":17,"name":"DDT testcase","description":"","id":"ddt-testcase","type":"scenario","keyword":"Scenario Outline","steps":[{"name":"url \"https:\/\/reqres.in\"","result":{"duration":186900,"status":"passed"},"match":{"location":"karate","arguments":[]},"keyword":"Given","line":7,"doc_string":{"content_type":"","value":"16:52:30.093 skipping bootstrap configuration: could not find or read file: classpath:karate-config.js","line":7}},{"name":"path \"\/api\/users?page=2>\"","result":{"duration":2641600,"status":"passed"},"match":{"location":"karate","arguments":[]},"keyword":"And","line":8},{"name":"method GET","result":{"duration":564168000,"status":"passed"},"match":{"location":"karate","arguments":[]},"keyword":"When","line":9,"doc_string":{"content_type":"","value":"16:52:30.097 request:\n1 > GET https:\/\/reqres.in\/api\/users%3Fpage=2%3E\n1 > Accept-Encoding: gzip,deflate\n1 > Connection: Keep-Alive\n1 > Host: reqres.in\n1 > User-Agent: Apache-HttpClient\/4.5.12 (Java\/1.8.0_251)\n\n16:52:30.661 response time in milliseconds: 561.58\n1 < 200\n1 < Access-Control-Allow-Origin: *\n1 < CF-Cache-Status: MISS\n1 < CF-RAY: 5fb4ab9f496d1aa0-SIN\n1 < Cache-Control: max-age=14400\n1 < Connection: keep-alive\n1 < Content-Type: application\/json; charset=utf-8\n1 < Date: Wed, 02 Dec 2020 11:22:30 GMT\n1 < Etag: W\/\"2c1-N6Rqerxquq2kgQhL51EiSg4x0R8\"\n1 < Expect-CT: max-age=604800, report-uri=\"https:\/\/report-uri.cloudflare.com\/cdn-cgi\/beacon\/expect-ct\"\n1 < NEL: {\"report_to\":\"cf-nel\",\"max_age\":604800}\n1 < Report-To: {\"endpoints\":[{\"url\":\"https:\\\/\\\/a.nel.cloudflare.com\\\/report?s=cB5LMG9nmZp%2BQzRcBhc6VRVubpetMYZpBGV0AjJz6BrgmPL%2BhHgBzvs024xVrMj9fgApzBaMwitYSuh8i92NHaGpdQ8ubHrVQGw%3D\"}],\"group\":\"cf-nel\",\"max_age\":604800}\n1 < Server: cloudflare\n1 < Set-Cookie: __cfduid=d4e7befa18b1827dcf51a4726719ff3b71606908149; expires=Fri, 01-Jan-21 11:22:29 GMT; path=\/; domain=.reqres.in; HttpOnly; SameSite=Lax; Secure\n1 < Transfer-Encoding: chunked\n1 < Vary: Accept-Encoding\n1 < Via: 1.1 vegur\n1 < X-Powered-By: Express\n1 < cf-request-id: 06c4c9978c00001aa06832b000000001\n{\"page\":1,\"per_page\":6,\"total\":12,\"total_pages\":2,\"data\":[{\"id\":1,\"name\":\"cerulean\",\"year\":2000,\"color\":\"#98B2D1\",\"pantone_value\":\"15-4020\"},{\"id\":2,\"name\":\"fuchsia rose\",\"year\":2001,\"color\":\"#C74375\",\"pantone_value\":\"17-2031\"},{\"id\":3,\"name\":\"true red\",\"year\":2002,\"color\":\"#BF1932\",\"pantone_value\":\"19-1664\"},{\"id\":4,\"name\":\"aqua sky\",\"year\":2003,\"color\":\"#7BC4C4\",\"pantone_value\":\"14-4811\"},{\"id\":5,\"name\":\"tigerlily\",\"year\":2004,\"color\":\"#E2583E\",\"pantone_value\":\"17-1456\"},{\"id\":6,\"name\":\"blue turquoise\",\"year\":2005,\"color\":\"#53B0AE\",\"pantone_value\":\"15-5217\"}],\"support\":{\"url\":\"https:\/\/reqres.in\/#support-heading\",\"text\":\"To keep ReqRes free, contributions towards server costs are appreciated!\"}}","line":9}},{"name":"status 200","result":{"duration":7100,"status":"passed"},"match":{"location":"karate","arguments":[]},"keyword":"Then","line":10},{"name":"match response.page == 1","result":{"duration":397600,"status":"passed"},"match":{"location":"karate","arguments":[]},"keyword":"*","line":11}],"tags":[{"name":"@ddt","line":5}]},{"line":18,"name":"DDT testcase","description":"","id":"ddt-testcase","type":"scenario","keyword":"Scenario Outline","steps":[{"name":"url \"https:\/\/reqres.in\"","result":{"duration":271000,"status":"passed"},"match":{"location":"karate","arguments":[]},"keyword":"Given","line":7,"doc_string":{"content_type":"","value":"16:52:30.666 skipping bootstrap configuration: could not find or read file: classpath:karate-config.js","line":7}},{"name":"path \"\/api\/users?page=3>\"","result":{"duration":1982600,"status":"passed"},"match":{"location":"karate","arguments":[]},"keyword":"And","line":8},{"name":"method GET","result":{"duration":560448300,"status":"passed"},"match":{"location":"karate","arguments":[]},"keyword":"When","line":9,"doc_string":{"content_type":"","value":"16:52:30.669 request:\n1 > GET https:\/\/reqres.in\/api\/users%3Fpage=3%3E\n1 > Accept-Encoding: gzip,deflate\n1 > Connection: Keep-Alive\n1 > Host: reqres.in\n1 > User-Agent: Apache-HttpClient\/4.5.12 (Java\/1.8.0_251)\n\n16:52:31.228 response time in milliseconds: 556.18\n1 < 200\n1 < Access-Control-Allow-Origin: *\n1 < CF-Cache-Status: MISS\n1 < CF-RAY: 5fb4aba2dc68aa72-SIN\n1 < Cache-Control: max-age=14400\n1 < Connection: keep-alive\n1 < Content-Type: application\/json; charset=utf-8\n1 < Date: Wed, 02 Dec 2020 11:22:30 GMT\n1 < Etag: W\/\"2c1-N6Rqerxquq2kgQhL51EiSg4x0R8\"\n1 < Expect-CT: max-age=604800, report-uri=\"https:\/\/report-uri.cloudflare.com\/cdn-cgi\/beacon\/expect-ct\"\n1 < NEL: {\"report_to\":\"cf-nel\",\"max_age\":604800}\n1 < Report-To: {\"endpoints\":[{\"url\":\"https:\\\/\\\/a.nel.cloudflare.com\\\/report?s=R%2FkfpCwWjIxfHjTXMkwjKI1nYiC6VYX7CRB%2FZWk8JdNTuVxxz893N3tYlRRAhpKIbgatmNb6F4CthojXakZkvpowfg9Fsn%2B6%2F5Q%3D\"}],\"group\":\"cf-nel\",\"max_age\":604800}\n1 < Server: cloudflare\n1 < Set-Cookie: __cfduid=d634d1d5534881a43c32398e4f259a8801606908150; expires=Fri, 01-Jan-21 11:22:30 GMT; path=\/; domain=.reqres.in; HttpOnly; SameSite=Lax; Secure\n1 < Transfer-Encoding: chunked\n1 < Vary: Accept-Encoding\n1 < Via: 1.1 vegur\n1 < X-Powered-By: Express\n1 < cf-request-id: 06c4c999c90000aa722e880000000001\n{\"page\":1,\"per_page\":6,\"total\":12,\"total_pages\":2,\"data\":[{\"id\":1,\"name\":\"cerulean\",\"year\":2000,\"color\":\"#98B2D1\",\"pantone_value\":\"15-4020\"},{\"id\":2,\"name\":\"fuchsia rose\",\"year\":2001,\"color\":\"#C74375\",\"pantone_value\":\"17-2031\"},{\"id\":3,\"name\":\"true red\",\"year\":2002,\"color\":\"#BF1932\",\"pantone_value\":\"19-1664\"},{\"id\":4,\"name\":\"aqua sky\",\"year\":2003,\"color\":\"#7BC4C4\",\"pantone_value\":\"14-4811\"},{\"id\":5,\"name\":\"tigerlily\",\"year\":2004,\"color\":\"#E2583E\",\"pantone_value\":\"17-1456\"},{\"id\":6,\"name\":\"blue turquoise\",\"year\":2005,\"color\":\"#53B0AE\",\"pantone_value\":\"15-5217\"}],\"support\":{\"url\":\"https:\/\/reqres.in\/#support-heading\",\"text\":\"To keep ReqRes free, contributions towards server costs are appreciated!\"}}","line":9}},{"name":"status 200","result":{"duration":18800,"status":"passed"},"match":{"location":"karate","arguments":[]},"keyword":"Then","line":10},{"name":"match response.page == 1","result":{"duration":916000,"status":"passed"},"match":{"location":"karate","arguments":[]},"keyword":"*","line":11}],"tags":[{"name":"@ddt","line":5}]},{"line":19,"name":"DDT testcase","description":"","id":"ddt-testcase","type":"scenario","keyword":"Scenario Outline","steps":[{"name":"url \"https:\/\/reqres.in\"","result":{"duration":159300,"status":"passed"},"match":{"location":"karate","arguments":[]},"keyword":"Given","line":7,"doc_string":{"content_type":"","value":"16:52:31.236 skipping bootstrap configuration: could not find or read file: classpath:karate-config.js","line":7}},{"name":"path \"\/api\/users?page=4>\"","result":{"duration":2121100,"status":"passed"},"match":{"location":"karate","arguments":[]},"keyword":"And","line":8},{"name":"method GET","result":{"duration":543711900,"status":"passed"},"match":{"location":"karate","arguments":[]},"keyword":"When","line":9,"doc_string":{"content_type":"","value":"16:52:31.240 request:\n1 > GET https:\/\/reqres.in\/api\/users%3Fpage=4%3E\n1 > Accept-Encoding: gzip,deflate\n1 > Connection: Keep-Alive\n1 > Host: reqres.in\n1 > User-Agent: Apache-HttpClient\/4.5.12 (Java\/1.8.0_251)\n\n16:52:31.782 response time in milliseconds: 541.53\n1 < 200\n1 < Access-Control-Allow-Origin: *\n1 < CF-Cache-Status: MISS\n1 < CF-RAY: 5fb4aba65c3d1a42-SIN\n1 < Cache-Control: max-age=14400\n1 < Connection: keep-alive\n1 < Content-Type: application\/json; charset=utf-8\n1 < Date: Wed, 02 Dec 2020 11:22:31 GMT\n1 < Etag: W\/\"2c1-N6Rqerxquq2kgQhL51EiSg4x0R8\"\n1 < Expect-CT: max-age=604800, report-uri=\"https:\/\/report-uri.cloudflare.com\/cdn-cgi\/beacon\/expect-ct\"\n1 < NEL: {\"report_to\":\"cf-nel\",\"max_age\":604800}\n1 < Report-To: {\"endpoints\":[{\"url\":\"https:\\\/\\\/a.nel.cloudflare.com\\\/report?s=NY%2Fi9F%2B0JfeEbgXdH9c%2FJDeBgWFw4M83TchmJyAlOl2RUCJHiJKSZUexNY3uUbssxknmvFH0jSleSEwsyuJX8Y24scopot3evLo%3D\"}],\"group\":\"cf-nel\",\"max_age\":604800}\n1 < Server: cloudflare\n1 < Set-Cookie: __cfduid=d5e4dcd8fa8e5428fb6811e2a459690011606908150; expires=Fri, 01-Jan-21 11:22:30 GMT; path=\/; domain=.reqres.in; HttpOnly; SameSite=Lax; Secure\n1 < Transfer-Encoding: chunked\n1 < Vary: Accept-Encoding\n1 < Via: 1.1 vegur\n1 < X-Powered-By: Express\n1 < cf-request-id: 06c4c99bfa00001a42d781c000000001\n{\"page\":1,\"per_page\":6,\"total\":12,\"total_pages\":2,\"data\":[{\"id\":1,\"name\":\"cerulean\",\"year\":2000,\"color\":\"#98B2D1\",\"pantone_value\":\"15-4020\"},{\"id\":2,\"name\":\"fuchsia rose\",\"year\":2001,\"color\":\"#C74375\",\"pantone_value\":\"17-2031\"},{\"id\":3,\"name\":\"true red\",\"year\":2002,\"color\":\"#BF1932\",\"pantone_value\":\"19-1664\"},{\"id\":4,\"name\":\"aqua sky\",\"year\":2003,\"color\":\"#7BC4C4\",\"pantone_value\":\"14-4811\"},{\"id\":5,\"name\":\"tigerlily\",\"year\":2004,\"color\":\"#E2583E\",\"pantone_value\":\"17-1456\"},{\"id\":6,\"name\":\"blue turquoise\",\"year\":2005,\"color\":\"#53B0AE\",\"pantone_value\":\"15-5217\"}],\"support\":{\"url\":\"https:\/\/reqres.in\/#support-heading\",\"text\":\"To keep ReqRes free, contributions towards server costs are appreciated!\"}}","line":9}},{"name":"status 200","result":{"duration":8300,"status":"passed"},"match":{"location":"karate","arguments":[]},"keyword":"Then","line":10},{"name":"match response.page == 1","result":{"duration":334400,"status":"passed"},"match":{"location":"karate","arguments":[]},"keyword":"*","line":11}],"tags":[{"name":"@ddt","line":5}]},{"line":20,"name":"DDT testcase","description":"","id":"ddt-testcase","type":"scenario","keyword":"Scenario Outline","steps":[{"name":"url \"https:\/\/reqres.in\"","result":{"duration":141000,"status":"passed"},"match":{"location":"karate","arguments":[]},"keyword":"Given","line":7,"doc_string":{"content_type":"","value":"16:52:31.788 skipping bootstrap configuration: could not find or read file: classpath:karate-config.js","line":7}},{"name":"path \"\/api\/users?page=5>\"","result":{"duration":2100100,"status":"passed"},"match":{"location":"karate","arguments":[]},"keyword":"And","line":8},{"name":"method GET","result":{"duration":569214900,"status":"passed"},"match":{"location":"karate","arguments":[]},"keyword":"When","line":9,"doc_string":{"content_type":"","value":"16:52:31.792 request:\n1 > GET https:\/\/reqres.in\/api\/users%3Fpage=5%3E\n1 > Accept-Encoding: gzip,deflate\n1 > Connection: Keep-Alive\n1 > Host: reqres.in\n1 > User-Agent: Apache-HttpClient\/4.5.12 (Java\/1.8.0_251)\n\n16:52:32.360 response time in milliseconds: 566.98\n1 < 200\n1 < Access-Control-Allow-Origin: *\n1 < CF-Cache-Status: MISS\n1 < CF-RAY: 5fb4aba9db441972-SIN\n1 < Cache-Control: max-age=14400\n1 < Connection: keep-alive\n1 < Content-Type: application\/json; charset=utf-8\n1 < Date: Wed, 02 Dec 2020 11:22:31 GMT\n1 < Etag: W\/\"2c1-N6Rqerxquq2kgQhL51EiSg4x0R8\"\n1 < Expect-CT: max-age=604800, report-uri=\"https:\/\/report-uri.cloudflare.com\/cdn-cgi\/beacon\/expect-ct\"\n1 < NEL: {\"report_to\":\"cf-nel\",\"max_age\":604800}\n1 < Report-To: {\"endpoints\":[{\"url\":\"https:\\\/\\\/a.nel.cloudflare.com\\\/report?s=EW%2FNHKPtX0Faf9oI9JD0nPOhYHA8yr%2FM5Vvemsh75C%2FnFV1wpdcpWDrYQnsaR7FP2a8HsMhPRISjyxvjzPGQKaCSNCbiPXfo9f8%3D\"}],\"group\":\"cf-nel\",\"max_age\":604800}\n1 < Server: cloudflare\n1 < Set-Cookie: __cfduid=d56912be3c3459e2fabb15f801d85a1af1606908151; expires=Fri, 01-Jan-21 11:22:31 GMT; path=\/; domain=.reqres.in; HttpOnly; SameSite=Lax; Secure\n1 < Transfer-Encoding: chunked\n1 < Vary: Accept-Encoding\n1 < Via: 1.1 vegur\n1 < X-Powered-By: Express\n1 < cf-request-id: 06c4c99e26000019721c99c000000001\n{\"page\":1,\"per_page\":6,\"total\":12,\"total_pages\":2,\"data\":[{\"id\":1,\"name\":\"cerulean\",\"year\":2000,\"color\":\"#98B2D1\",\"pantone_value\":\"15-4020\"},{\"id\":2,\"name\":\"fuchsia rose\",\"year\":2001,\"color\":\"#C74375\",\"pantone_value\":\"17-2031\"},{\"id\":3,\"name\":\"true red\",\"year\":2002,\"color\":\"#BF1932\",\"pantone_value\":\"19-1664\"},{\"id\":4,\"name\":\"aqua sky\",\"year\":2003,\"color\":\"#7BC4C4\",\"pantone_value\":\"14-4811\"},{\"id\":5,\"name\":\"tigerlily\",\"year\":2004,\"color\":\"#E2583E\",\"pantone_value\":\"17-1456\"},{\"id\":6,\"name\":\"blue turquoise\",\"year\":2005,\"color\":\"#53B0AE\",\"pantone_value\":\"15-5217\"}],\"support\":{\"url\":\"https:\/\/reqres.in\/#support-heading\",\"text\":\"To keep ReqRes free, contributions towards server costs are appreciated!\"}}","line":9}},{"name":"status 200","result":{"duration":7100,"status":"passed"},"match":{"location":"karate","arguments":[]},"keyword":"Then","line":10},{"name":"match response.page == 1","result":{"duration":334500,"status":"passed"},"match":{"location":"karate","arguments":[]},"keyword":"*","line":11}],"tags":[{"name":"@ddt","line":5}]}],"name":"src\/test\/java\/featurefiles\/karate10.feature","description":"Karate Test suite 08\nData driven testing","id":"karate-test-suite-08","keyword":"Feature","uri":"src\/test\/java\/featurefiles\/karate10.feature"}]