[{"line":1,"elements":[{"line":16,"name":"DDT testcase","description":"","id":"ddt-testcase","type":"scenario","keyword":"Scenario Outline","steps":[{"name":"url \"https:\/\/reqres.in\"","result":{"duration":113200,"status":"passed"},"match":{"location":"karate","arguments":[]},"keyword":"Given","line":7,"doc_string":{"content_type":"","value":"19:11:35.358 from karate-config.js","line":7}},{"name":"path \"\/api\/users?page=1>\"","result":{"duration":1497000,"status":"passed"},"match":{"location":"karate","arguments":[]},"keyword":"And","line":8},{"name":"method GET","result":{"duration":75313200,"status":"passed"},"match":{"location":"karate","arguments":[]},"keyword":"When","line":9,"doc_string":{"content_type":"","value":"19:11:35.362 request:\n1 > GET https:\/\/reqres.in\/api\/users%3Fpage=1%3E\n1 > Accept-Encoding: gzip,deflate\n1 > Connection: Keep-Alive\n1 > Host: reqres.in\n1 > User-Agent: Apache-HttpClient\/4.5.12 (Java\/1.8.0_251)\n\n19:11:35.425 response time in milliseconds: 73.48\n1 < 200\n1 < Access-Control-Allow-Origin: *\n1 < Age: 1858\n1 < CF-Cache-Status: HIT\n1 < CF-RAY: 5fbdb4bed9af2e3b-BOM\n1 < Cache-Control: max-age=14400\n1 < Connection: keep-alive\n1 < Content-Type: application\/json; charset=utf-8\n1 < Date: Thu, 03 Dec 2020 13:41:35 GMT\n1 < Etag: W\/\"2c1-N6Rqerxquq2kgQhL51EiSg4x0R8\"\n1 < Expect-CT: max-age=604800, report-uri=\"https:\/\/report-uri.cloudflare.com\/cdn-cgi\/beacon\/expect-ct\"\n1 < NEL: {\"report_to\":\"cf-nel\",\"max_age\":604800}\n1 < Report-To: {\"endpoints\":[{\"url\":\"https:\\\/\\\/a.nel.cloudflare.com\\\/report?s=Zll0XrGcQZFr1bYIuhzkV%2BEU1FkTvuaIVWhJ7V87FSMunUm%2B0h8ZWtstttYqHEn7BED7RbwRVho8uZNClRbTw9SrDkpdVIlVA%2Bo%3D\"}],\"group\":\"cf-nel\",\"max_age\":604800}\n1 < Server: cloudflare\n1 < Set-Cookie: __cfduid=de3f6c63f5417e04f3a7064e7db6a83b31607002895; expires=Sat, 02-Jan-21 13:41:35 GMT; path=\/; domain=.reqres.in; HttpOnly; SameSite=Lax; Secure\n1 < Transfer-Encoding: chunked\n1 < Vary: Accept-Encoding\n1 < Via: 1.1 vegur\n1 < X-Powered-By: Express\n1 < cf-request-id: 06ca6f4b4700002e3b700a9000000001\n{\"page\":1,\"per_page\":6,\"total\":12,\"total_pages\":2,\"data\":[{\"id\":1,\"name\":\"cerulean\",\"year\":2000,\"color\":\"#98B2D1\",\"pantone_value\":\"15-4020\"},{\"id\":2,\"name\":\"fuchsia rose\",\"year\":2001,\"color\":\"#C74375\",\"pantone_value\":\"17-2031\"},{\"id\":3,\"name\":\"true red\",\"year\":2002,\"color\":\"#BF1932\",\"pantone_value\":\"19-1664\"},{\"id\":4,\"name\":\"aqua sky\",\"year\":2003,\"color\":\"#7BC4C4\",\"pantone_value\":\"14-4811\"},{\"id\":5,\"name\":\"tigerlily\",\"year\":2004,\"color\":\"#E2583E\",\"pantone_value\":\"17-1456\"},{\"id\":6,\"name\":\"blue turquoise\",\"year\":2005,\"color\":\"#53B0AE\",\"pantone_value\":\"15-5217\"}],\"support\":{\"url\":\"https:\/\/reqres.in\/#support-heading\",\"text\":\"To keep ReqRes free, contributions towards server costs are appreciated!\"}}","line":9}},{"name":"status 200","result":{"duration":7300,"status":"passed"},"match":{"location":"karate","arguments":[]},"keyword":"Then","line":10},{"name":"match response.page == 1","result":{"duration":241100,"status":"passed"},"match":{"location":"karate","arguments":[]},"keyword":"*","line":11}],"tags":[{"name":"@ddt","line":5}]},{"line":17,"name":"DDT testcase","description":"","id":"ddt-testcase","type":"scenario","keyword":"Scenario Outline","steps":[{"name":"url \"https:\/\/reqres.in\"","result":{"duration":110100,"status":"passed"},"match":{"location":"karate","arguments":[]},"keyword":"Given","line":7,"doc_string":{"content_type":"","value":"19:11:35.425 from karate-config.js","line":7}},{"name":"path \"\/api\/users?page=2>\"","result":{"duration":2185700,"status":"passed"},"match":{"location":"karate","arguments":[]},"keyword":"And","line":8},{"name":"method GET","result":{"duration":83916500,"status":"passed"},"match":{"location":"karate","arguments":[]},"keyword":"When","line":9,"doc_string":{"content_type":"","value":"19:11:35.441 request:\n1 > GET https:\/\/reqres.in\/api\/users%3Fpage=2%3E\n1 > Accept-Encoding: gzip,deflate\n1 > Connection: Keep-Alive\n1 > Host: reqres.in\n1 > User-Agent: Apache-HttpClient\/4.5.12 (Java\/1.8.0_251)\n\n19:11:35.519 response time in milliseconds: 81.00\n1 < 200\n1 < Access-Control-Allow-Origin: *\n1 < Age: 1858\n1 < CF-Cache-Status: HIT\n1 < CF-RAY: 5fbdb4bf59c02dfd-BOM\n1 < Cache-Control: max-age=14400\n1 < Connection: keep-alive\n1 < Content-Type: application\/json; charset=utf-8\n1 < Date: Thu, 03 Dec 2020 13:41:35 GMT\n1 < Etag: W\/\"2c1-N6Rqerxquq2kgQhL51EiSg4x0R8\"\n1 < Expect-CT: max-age=604800, report-uri=\"https:\/\/report-uri.cloudflare.com\/cdn-cgi\/beacon\/expect-ct\"\n1 < NEL: {\"report_to\":\"cf-nel\",\"max_age\":604800}\n1 < Report-To: {\"endpoints\":[{\"url\":\"https:\\\/\\\/a.nel.cloudflare.com\\\/report?s=rLmWdfS0vpgb8HquNqin%2FAwifPe0vWjqlj1FrXv%2Bt5RowIS%2BRrSfcBs64%2Fs%2FsowjeoZRRcCUIxG84Jz%2FpJjZUY8R4ZG35bPTnzQ%3D\"}],\"group\":\"cf-nel\",\"max_age\":604800}\n1 < Server: cloudflare\n1 < Set-Cookie: __cfduid=d78159694d30ed29a33ed1ea5e3fe598d1607002895; expires=Sat, 02-Jan-21 13:41:35 GMT; path=\/; domain=.reqres.in; HttpOnly; SameSite=Lax; Secure\n1 < Transfer-Encoding: chunked\n1 < Vary: Accept-Encoding\n1 < Via: 1.1 vegur\n1 < X-Powered-By: Express\n1 < cf-request-id: 06ca6f4b9900002dfd920b4000000001\n{\"page\":1,\"per_page\":6,\"total\":12,\"total_pages\":2,\"data\":[{\"id\":1,\"name\":\"cerulean\",\"year\":2000,\"color\":\"#98B2D1\",\"pantone_value\":\"15-4020\"},{\"id\":2,\"name\":\"fuchsia rose\",\"year\":2001,\"color\":\"#C74375\",\"pantone_value\":\"17-2031\"},{\"id\":3,\"name\":\"true red\",\"year\":2002,\"color\":\"#BF1932\",\"pantone_value\":\"19-1664\"},{\"id\":4,\"name\":\"aqua sky\",\"year\":2003,\"color\":\"#7BC4C4\",\"pantone_value\":\"14-4811\"},{\"id\":5,\"name\":\"tigerlily\",\"year\":2004,\"color\":\"#E2583E\",\"pantone_value\":\"17-1456\"},{\"id\":6,\"name\":\"blue turquoise\",\"year\":2005,\"color\":\"#53B0AE\",\"pantone_value\":\"15-5217\"}],\"support\":{\"url\":\"https:\/\/reqres.in\/#support-heading\",\"text\":\"To keep ReqRes free, contributions towards server costs are appreciated!\"}}","line":9}},{"name":"status 200","result":{"duration":18700,"status":"passed"},"match":{"location":"karate","arguments":[]},"keyword":"Then","line":10},{"name":"match response.page == 1","result":{"duration":635200,"status":"passed"},"match":{"location":"karate","arguments":[]},"keyword":"*","line":11}],"tags":[{"name":"@ddt","line":5}]},{"line":18,"name":"DDT testcase","description":"","id":"ddt-testcase","type":"scenario","keyword":"Scenario Outline","steps":[{"name":"url \"https:\/\/reqres.in\"","result":{"duration":244900,"status":"passed"},"match":{"location":"karate","arguments":[]},"keyword":"Given","line":7,"doc_string":{"content_type":"","value":"19:11:35.519 from karate-config.js","line":7}},{"name":"path \"\/api\/users?page=3>\"","result":{"duration":3897600,"status":"passed"},"match":{"location":"karate","arguments":[]},"keyword":"And","line":8},{"name":"method GET","result":{"duration":82235100,"status":"passed"},"match":{"location":"karate","arguments":[]},"keyword":"When","line":9,"doc_string":{"content_type":"","value":"19:11:35.535 request:\n1 > GET https:\/\/reqres.in\/api\/users%3Fpage=3%3E\n1 > Accept-Encoding: gzip,deflate\n1 > Connection: Keep-Alive\n1 > Host: reqres.in\n1 > User-Agent: Apache-HttpClient\/4.5.12 (Java\/1.8.0_251)\n\n19:11:35.613 response time in milliseconds: 77.97\n1 < 200\n1 < Access-Control-Allow-Origin: *\n1 < Age: 1858\n1 < CF-Cache-Status: HIT\n1 < CF-RAY: 5fbdb4bff973d5bb-BOM\n1 < Cache-Control: max-age=14400\n1 < Connection: keep-alive\n1 < Content-Type: application\/json; charset=utf-8\n1 < Date: Thu, 03 Dec 2020 13:41:35 GMT\n1 < Etag: W\/\"2c1-N6Rqerxquq2kgQhL51EiSg4x0R8\"\n1 < Expect-CT: max-age=604800, report-uri=\"https:\/\/report-uri.cloudflare.com\/cdn-cgi\/beacon\/expect-ct\"\n1 < NEL: {\"report_to\":\"cf-nel\",\"max_age\":604800}\n1 < Report-To: {\"endpoints\":[{\"url\":\"https:\\\/\\\/a.nel.cloudflare.com\\\/report?s=J6oHROZGA2JGKx6UsQcVEog6nWTKLXAxtD9m81yEV02SH6HZog7tM%2FNqFa49HDNnTpcQuu2ExTPNQWlJ%2Fa8GmLocXpn%2BUsgNz5c%3D\"}],\"group\":\"cf-nel\",\"max_age\":604800}\n1 < Server: cloudflare\n1 < Set-Cookie: __cfduid=d95d4e9e9457706f962b03892e28090ae1607002895; expires=Sat, 02-Jan-21 13:41:35 GMT; path=\/; domain=.reqres.in; HttpOnly; SameSite=Lax; Secure\n1 < Transfer-Encoding: chunked\n1 < Vary: Accept-Encoding\n1 < Via: 1.1 vegur\n1 < X-Powered-By: Express\n1 < cf-request-id: 06ca6f4bfd0000d5bb2d351000000001\n{\"page\":1,\"per_page\":6,\"total\":12,\"total_pages\":2,\"data\":[{\"id\":1,\"name\":\"cerulean\",\"year\":2000,\"color\":\"#98B2D1\",\"pantone_value\":\"15-4020\"},{\"id\":2,\"name\":\"fuchsia rose\",\"year\":2001,\"color\":\"#C74375\",\"pantone_value\":\"17-2031\"},{\"id\":3,\"name\":\"true red\",\"year\":2002,\"color\":\"#BF1932\",\"pantone_value\":\"19-1664\"},{\"id\":4,\"name\":\"aqua sky\",\"year\":2003,\"color\":\"#7BC4C4\",\"pantone_value\":\"14-4811\"},{\"id\":5,\"name\":\"tigerlily\",\"year\":2004,\"color\":\"#E2583E\",\"pantone_value\":\"17-1456\"},{\"id\":6,\"name\":\"blue turquoise\",\"year\":2005,\"color\":\"#53B0AE\",\"pantone_value\":\"15-5217\"}],\"support\":{\"url\":\"https:\/\/reqres.in\/#support-heading\",\"text\":\"To keep ReqRes free, contributions towards server costs are appreciated!\"}}","line":9}},{"name":"status 200","result":{"duration":18400,"status":"passed"},"match":{"location":"karate","arguments":[]},"keyword":"Then","line":10},{"name":"match response.page == 1","result":{"duration":539700,"status":"passed"},"match":{"location":"karate","arguments":[]},"keyword":"*","line":11}],"tags":[{"name":"@ddt","line":5}]},{"line":19,"name":"DDT testcase","description":"","id":"ddt-testcase","type":"scenario","keyword":"Scenario Outline","steps":[{"name":"url \"https:\/\/reqres.in\"","result":{"duration":213400,"status":"passed"},"match":{"location":"karate","arguments":[]},"keyword":"Given","line":7,"doc_string":{"content_type":"","value":"19:11:35.628 from karate-config.js","line":7}},{"name":"path \"\/api\/users?page=4>\"","result":{"duration":3596600,"status":"passed"},"match":{"location":"karate","arguments":[]},"keyword":"And","line":8},{"name":"method GET","result":{"duration":90840200,"status":"passed"},"match":{"location":"karate","arguments":[]},"keyword":"When","line":9,"doc_string":{"content_type":"","value":"19:11:35.628 request:\n1 > GET https:\/\/reqres.in\/api\/users%3Fpage=4%3E\n1 > Accept-Encoding: gzip,deflate\n1 > Connection: Keep-Alive\n1 > Host: reqres.in\n1 > User-Agent: Apache-HttpClient\/4.5.12 (Java\/1.8.0_251)\n\n19:11:35.722 response time in milliseconds: 86.91\n1 < 200\n1 < Access-Control-Allow-Origin: *\n1 < Age: 1857\n1 < CF-Cache-Status: HIT\n1 < CF-RAY: 5fbdb4c09cab31b8-BOM\n1 < Cache-Control: max-age=14400\n1 < Connection: keep-alive\n1 < Content-Type: application\/json; charset=utf-8\n1 < Date: Thu, 03 Dec 2020 13:41:35 GMT\n1 < Etag: W\/\"2c1-N6Rqerxquq2kgQhL51EiSg4x0R8\"\n1 < Expect-CT: max-age=604800, report-uri=\"https:\/\/report-uri.cloudflare.com\/cdn-cgi\/beacon\/expect-ct\"\n1 < NEL: {\"report_to\":\"cf-nel\",\"max_age\":604800}\n1 < Report-To: {\"endpoints\":[{\"url\":\"https:\\\/\\\/a.nel.cloudflare.com\\\/report?s=eF2IGHJHmjJgCtoAm3fQ4kdB5zNZUtkZnfghZF%2Fcc33b8ueZvExV%2BmbqzX4rhjIT5k2WH5YE0fO01iDHgycOhbz%2Bi1wF1kbAW4Y%3D\"}],\"group\":\"cf-nel\",\"max_age\":604800}\n1 < Server: cloudflare\n1 < Set-Cookie: __cfduid=dd86a4dbff3bf29409e22ae285b5480ce1607002895; expires=Sat, 02-Jan-21 13:41:35 GMT; path=\/; domain=.reqres.in; HttpOnly; SameSite=Lax; Secure\n1 < Transfer-Encoding: chunked\n1 < Vary: Accept-Encoding\n1 < Via: 1.1 vegur\n1 < X-Powered-By: Express\n1 < cf-request-id: 06ca6f4c64000031b854a17000000001\n{\"page\":1,\"per_page\":6,\"total\":12,\"total_pages\":2,\"data\":[{\"id\":1,\"name\":\"cerulean\",\"year\":2000,\"color\":\"#98B2D1\",\"pantone_value\":\"15-4020\"},{\"id\":2,\"name\":\"fuchsia rose\",\"year\":2001,\"color\":\"#C74375\",\"pantone_value\":\"17-2031\"},{\"id\":3,\"name\":\"true red\",\"year\":2002,\"color\":\"#BF1932\",\"pantone_value\":\"19-1664\"},{\"id\":4,\"name\":\"aqua sky\",\"year\":2003,\"color\":\"#7BC4C4\",\"pantone_value\":\"14-4811\"},{\"id\":5,\"name\":\"tigerlily\",\"year\":2004,\"color\":\"#E2583E\",\"pantone_value\":\"17-1456\"},{\"id\":6,\"name\":\"blue turquoise\",\"year\":2005,\"color\":\"#53B0AE\",\"pantone_value\":\"15-5217\"}],\"support\":{\"url\":\"https:\/\/reqres.in\/#support-heading\",\"text\":\"To keep ReqRes free, contributions towards server costs are appreciated!\"}}","line":9}},{"name":"status 200","result":{"duration":7700,"status":"passed"},"match":{"location":"karate","arguments":[]},"keyword":"Then","line":10},{"name":"match response.page == 1","result":{"duration":270500,"status":"passed"},"match":{"location":"karate","arguments":[]},"keyword":"*","line":11}],"tags":[{"name":"@ddt","line":5}]},{"line":20,"name":"DDT testcase","description":"","id":"ddt-testcase","type":"scenario","keyword":"Scenario Outline","steps":[{"name":"url \"https:\/\/reqres.in\"","result":{"duration":352600,"status":"passed"},"match":{"location":"karate","arguments":[]},"keyword":"Given","line":7,"doc_string":{"content_type":"","value":"19:11:35.722 from karate-config.js","line":7}},{"name":"path \"\/api\/users?page=5>\"","result":{"duration":1218900,"status":"passed"},"match":{"location":"karate","arguments":[]},"keyword":"And","line":8},{"name":"method GET","result":{"duration":78354500,"status":"passed"},"match":{"location":"karate","arguments":[]},"keyword":"When","line":9,"doc_string":{"content_type":"","value":"19:11:35.722 request:\n1 > GET https:\/\/reqres.in\/api\/users%3Fpage=5%3E\n1 > Accept-Encoding: gzip,deflate\n1 > Connection: Keep-Alive\n1 > Host: reqres.in\n1 > User-Agent: Apache-HttpClient\/4.5.12 (Java\/1.8.0_251)\n\n19:11:35.800 response time in milliseconds: 75.60\n1 < 200\n1 < Access-Control-Allow-Origin: *\n1 < Age: 1857\n1 < CF-Cache-Status: HIT\n1 < CF-RAY: 5fbdb4c1288431cf-BOM\n1 < Cache-Control: max-age=14400\n1 < Connection: keep-alive\n1 < Content-Type: application\/json; charset=utf-8\n1 < Date: Thu, 03 Dec 2020 13:41:35 GMT\n1 < Etag: W\/\"2c1-N6Rqerxquq2kgQhL51EiSg4x0R8\"\n1 < Expect-CT: max-age=604800, report-uri=\"https:\/\/report-uri.cloudflare.com\/cdn-cgi\/beacon\/expect-ct\"\n1 < NEL: {\"report_to\":\"cf-nel\",\"max_age\":604800}\n1 < Report-To: {\"endpoints\":[{\"url\":\"https:\\\/\\\/a.nel.cloudflare.com\\\/report?s=X75mDR%2F%2FKp5OZ%2FKtFJS0btf7x48GZnK4S5VX5s0huQP%2Fzs32txjIaf84yDeZF7WVWKe1NFuCyyIf%2Bln5ERuw10T2Uw25rShAt0w%3D\"}],\"group\":\"cf-nel\",\"max_age\":604800}\n1 < Server: cloudflare\n1 < Set-Cookie: __cfduid=d4a08ba179952dda57c07449b4f6838dd1607002895; expires=Sat, 02-Jan-21 13:41:35 GMT; path=\/; domain=.reqres.in; HttpOnly; SameSite=Lax; Secure\n1 < Transfer-Encoding: chunked\n1 < Vary: Accept-Encoding\n1 < Via: 1.1 vegur\n1 < X-Powered-By: Express\n1 < cf-request-id: 06ca6f4cba000031cf1c983000000001\n{\"page\":1,\"per_page\":6,\"total\":12,\"total_pages\":2,\"data\":[{\"id\":1,\"name\":\"cerulean\",\"year\":2000,\"color\":\"#98B2D1\",\"pantone_value\":\"15-4020\"},{\"id\":2,\"name\":\"fuchsia rose\",\"year\":2001,\"color\":\"#C74375\",\"pantone_value\":\"17-2031\"},{\"id\":3,\"name\":\"true red\",\"year\":2002,\"color\":\"#BF1932\",\"pantone_value\":\"19-1664\"},{\"id\":4,\"name\":\"aqua sky\",\"year\":2003,\"color\":\"#7BC4C4\",\"pantone_value\":\"14-4811\"},{\"id\":5,\"name\":\"tigerlily\",\"year\":2004,\"color\":\"#E2583E\",\"pantone_value\":\"17-1456\"},{\"id\":6,\"name\":\"blue turquoise\",\"year\":2005,\"color\":\"#53B0AE\",\"pantone_value\":\"15-5217\"}],\"support\":{\"url\":\"https:\/\/reqres.in\/#support-heading\",\"text\":\"To keep ReqRes free, contributions towards server costs are appreciated!\"}}","line":9}},{"name":"status 200","result":{"duration":709300,"status":"passed"},"match":{"location":"karate","arguments":[]},"keyword":"Then","line":10},{"name":"match response.page == 1","result":{"duration":557900,"status":"passed"},"match":{"location":"karate","arguments":[]},"keyword":"*","line":11}],"tags":[{"name":"@ddt","line":5}]}],"name":"featurefiles\/karate10.feature","description":"Karate Test suite 08\nData driven testing","id":"karate-test-suite-08","keyword":"Feature","uri":"featurefiles\/karate10.feature"}]